%YAML 1.1
%TAG !u! tag:unity3d.com,2011:
--- !u!1 &4096334426330735728
GameObject:
  m_ObjectHideFlags: 0
  m_CorrespondingSourceObject: {fileID: 0}
  m_PrefabInstance: {fileID: 0}
  m_PrefabAsset: {fileID: 0}
  serializedVersion: 6
  m_Component:
  - component: {fileID: 4065287176773769068}
  - component: {fileID: 8212225522672206832}
  - component: {fileID: 2930706341095055853}
  m_Layer: 31
  m_Name: Layer1
  m_TagString: Untagged
  m_Icon: {fileID: 0}
  m_NavMeshLayer: 0
  m_StaticEditorFlags: 0
  m_IsActive: 1
--- !u!4 &4065287176773769068
Transform:
  m_ObjectHideFlags: 0
  m_CorrespondingSourceObject: {fileID: 0}
  m_PrefabInstance: {fileID: 0}
  m_PrefabAsset: {fileID: 0}
  m_GameObject: {fileID: 4096334426330735728}
  m_LocalRotation: {x: -0, y: -0, z: -0, w: 1}
  m_LocalPosition: {x: 0, y: 0, z: 0}
  m_LocalScale: {x: 1, y: 1, z: 1}
  m_Children: []
  m_Father: {fileID: 3361329772841221993}
  m_RootOrder: 0
  m_LocalEulerAnglesHint: {x: 0, y: 0, z: 0}
--- !u!1839735485 &8212225522672206832
Tilemap:
  m_ObjectHideFlags: 0
  m_CorrespondingSourceObject: {fileID: 0}
  m_PrefabInstance: {fileID: 0}
  m_PrefabAsset: {fileID: 0}
  m_GameObject: {fileID: 4096334426330735728}
  m_Enabled: 1
  m_Tiles:
  - first: {x: -1, y: -3, z: 0}
    second:
      m_TileIndex: 15
      m_TileSpriteIndex: 15
      m_TileMatrixIndex: 0
      m_TileColorIndex: 0
      m_ObjectToInstantiate: {fileID: 0}
      m_TileFlags: 1
      m_ColliderType: 1
  - first: {x: 0, y: -3, z: 0}
    second:
      m_TileIndex: 16
      m_TileSpriteIndex: 16
      m_TileMatrixIndex: 0
      m_TileColorIndex: 0
      m_ObjectToInstantiate: {fileID: 0}
      m_TileFlags: 1
      m_ColliderType: 1
  - first: {x: 1, y: -3, z: 0}
    second:
      m_TileIndex: 17
      m_TileSpriteIndex: 17
      m_TileMatrixIndex: 0
      m_TileColorIndex: 0
      m_ObjectToInstantiate: {fileID: 0}
      m_TileFlags: 1
      m_ColliderType: 1
  - first: {x: 2, y: -3, z: 0}
    second:
      m_TileIndex: 18
      m_TileSpriteIndex: 18
      m_TileMatrixIndex: 0
      m_TileColorIndex: 0
      m_ObjectToInstantiate: {fileID: 0}
      m_TileFlags: 1
      m_ColliderType: 1
  - first: {x: 3, y: -3, z: 0}
    second:
      m_TileIndex: 19
      m_TileSpriteIndex: 19
      m_TileMatrixIndex: 0
      m_TileColorIndex: 0
      m_ObjectToInstantiate: {fileID: 0}
      m_TileFlags: 1
      m_ColliderType: 1
  - first: {x: -1, y: -2, z: 0}
    second:
      m_TileIndex: 10
      m_TileSpriteIndex: 10
      m_TileMatrixIndex: 0
      m_TileColorIndex: 0
      m_ObjectToInstantiate: {fileID: 0}
      m_TileFlags: 1
      m_ColliderType: 1
  - first: {x: 0, y: -2, z: 0}
    second:
      m_TileIndex: 11
      m_TileSpriteIndex: 11
      m_TileMatrixIndex: 0
      m_TileColorIndex: 0
      m_ObjectToInstantiate: {fileID: 0}
      m_TileFlags: 1
      m_ColliderType: 1
  - first: {x: 1, y: -2, z: 0}
    second:
      m_TileIndex: 12
      m_TileSpriteIndex: 12
      m_TileMatrixIndex: 0
      m_TileColorIndex: 0
      m_ObjectToInstantiate: {fileID: 0}
      m_TileFlags: 1
      m_ColliderType: 1
  - first: {x: 2, y: -2, z: 0}
    second:
      m_TileIndex: 13
      m_TileSpriteIndex: 13
      m_TileMatrixIndex: 0
      m_TileColorIndex: 0
      m_ObjectToInstantiate: {fileID: 0}
      m_TileFlags: 1
      m_ColliderType: 1
  - first: {x: 3, y: -2, z: 0}
    second:
      m_TileIndex: 14
      m_TileSpriteIndex: 14
      m_TileMatrixIndex: 0
      m_TileColorIndex: 0
      m_ObjectToInstantiate: {fileID: 0}
      m_TileFlags: 1
      m_ColliderType: 1
  - first: {x: -1, y: -1, z: 0}
    second:
      m_TileIndex: 5
      m_TileSpriteIndex: 5
      m_TileMatrixIndex: 0
      m_TileColorIndex: 0
      m_ObjectToInstantiate: {fileID: 0}
      m_TileFlags: 1
      m_ColliderType: 1
  - first: {x: 0, y: -1, z: 0}
    second:
      m_TileIndex: 6
      m_TileSpriteIndex: 6
      m_TileMatrixIndex: 0
      m_TileColorIndex: 0
      m_ObjectToInstantiate: {fileID: 0}
      m_TileFlags: 1
      m_ColliderType: 1
  - first: {x: 1, y: -1, z: 0}
    second:
      m_TileIndex: 7
      m_TileSpriteIndex: 7
      m_TileMatrixIndex: 0
      m_TileColorIndex: 0
      m_ObjectToInstantiate: {fileID: 0}
      m_TileFlags: 1
      m_ColliderType: 1
  - first: {x: 2, y: -1, z: 0}
    second:
      m_TileIndex: 8
      m_TileSpriteIndex: 8
      m_TileMatrixIndex: 0
      m_TileColorIndex: 0
      m_ObjectToInstantiate: {fileID: 0}
      m_TileFlags: 1
      m_ColliderType: 1
  - first: {x: 3, y: -1, z: 0}
    second:
      m_TileIndex: 9
      m_TileSpriteIndex: 9
      m_TileMatrixIndex: 0
      m_TileColorIndex: 0
      m_ObjectToInstantiate: {fileID: 0}
      m_TileFlags: 1
      m_ColliderType: 1
  - first: {x: -1, y: 0, z: 0}
    second:
      m_TileIndex: 0
      m_TileSpriteIndex: 0
      m_TileMatrixIndex: 0
      m_TileColorIndex: 0
      m_ObjectToInstantiate: {fileID: 0}
      m_TileFlags: 1
      m_ColliderType: 1
  - first: {x: 0, y: 0, z: 0}
    second:
      m_TileIndex: 1
      m_TileSpriteIndex: 1
      m_TileMatrixIndex: 0
      m_TileColorIndex: 0
      m_ObjectToInstantiate: {fileID: 0}
      m_TileFlags: 1
      m_ColliderType: 1
  - first: {x: 1, y: 0, z: 0}
    second:
      m_TileIndex: 2
      m_TileSpriteIndex: 2
      m_TileMatrixIndex: 0
      m_TileColorIndex: 0
      m_ObjectToInstantiate: {fileID: 0}
      m_TileFlags: 1
      m_ColliderType: 1
  - first: {x: 2, y: 0, z: 0}
    second:
      m_TileIndex: 3
      m_TileSpriteIndex: 3
      m_TileMatrixIndex: 0
      m_TileColorIndex: 0
      m_ObjectToInstantiate: {fileID: 0}
      m_TileFlags: 1
      m_ColliderType: 1
  - first: {x: 3, y: 0, z: 0}
    second:
      m_TileIndex: 4
      m_TileSpriteIndex: 4
      m_TileMatrixIndex: 0
      m_TileColorIndex: 0
      m_ObjectToInstantiate: {fileID: 0}
      m_TileFlags: 1
      m_ColliderType: 1
  m_AnimatedTiles: {}
  m_TileAssetArray:
  - m_RefCount: 1
    m_Data: {fileID: 11400000, guid: 6d3d836e3a6020f458667519ae67462a, type: 2}
  - m_RefCount: 1
    m_Data: {fileID: 11400000, guid: 6f840b4720165c349a46699dfd787f97, type: 2}
  - m_RefCount: 1
    m_Data: {fileID: 11400000, guid: 4b8519245f43f80439a11a5c54a2be53, type: 2}
  - m_RefCount: 1
    m_Data: {fileID: 11400000, guid: cf99d9b8cb19836409cbf0755fa74e91, type: 2}
  - m_RefCount: 1
    m_Data: {fileID: 11400000, guid: 49a12df0f6b69184884200f0461492d0, type: 2}
  - m_RefCount: 1
    m_Data: {fileID: 11400000, guid: 0314ad8bdf6f18d439afd092519a5800, type: 2}
  - m_RefCount: 1
    m_Data: {fileID: 11400000, guid: e0643e77331130f4b88ffad0e88e2bdc, type: 2}
  - m_RefCount: 1
    m_Data: {fileID: 11400000, guid: 03ad9e390526c564198b52fe9c00135f, type: 2}
  - m_RefCount: 1
    m_Data: {fileID: 11400000, guid: a08bc414ba8b3a0449f201b3ed441967, type: 2}
  - m_RefCount: 1
    m_Data: {fileID: 11400000, guid: 365a2bb111e5dd24eb5acc7c20420736, type: 2}
  - m_RefCount: 1
    m_Data: {fileID: 11400000, guid: 8496d7cbf42574646b011cb7c0ec5b98, type: 2}
  - m_RefCount: 1
    m_Data: {fileID: 11400000, guid: e69d3c84e23784a46b2760613f6094fe, type: 2}
  - m_RefCount: 1
    m_Data: {fileID: 11400000, guid: edf9377c58ebf8247aeac86f04cbad71, type: 2}
  - m_RefCount: 1
    m_Data: {fileID: 11400000, guid: 826a52db10012994dafecefc9e8e97eb, type: 2}
  - m_RefCount: 1
    m_Data: {fileID: 11400000, guid: f99f512b7db82c14db795a5596fda192, type: 2}
  - m_RefCount: 1
    m_Data: {fileID: 11400000, guid: df3413580e249d04ba2250f8cfef90cc, type: 2}
  - m_RefCount: 1
    m_Data: {fileID: 11400000, guid: 02ab80c85908f914680e54b8f9e4fb56, type: 2}
  - m_RefCount: 1
    m_Data: {fileID: 11400000, guid: b3bbb906aa6f60e4e85bb645c725422b, type: 2}
  - m_RefCount: 1
    m_Data: {fileID: 11400000, guid: ec8f5821adbb1be4aa23eea5b924eb16, type: 2}
  - m_RefCount: 1
    m_Data: {fileID: 11400000, guid: bac289eec9e2f834597b86cba01f4cd7, type: 2}
  m_TileSpriteArray:
  - m_RefCount: 1
    m_Data: {fileID: 21300000, guid: 40bab51976b252043832e6458f5a6737, type: 3}
  - m_RefCount: 1
    m_Data: {fileID: 21300000, guid: 06205f8e0dd322048bc743f8ab8a4f93, type: 3}
  - m_RefCount: 1
    m_Data: {fileID: 21300000, guid: 7709d7f496a8e36408e963599d6a4f22, type: 3}
  - m_RefCount: 1
    m_Data: {fileID: 21300000, guid: 745763f238819ba428a02a8dfbad6af8, type: 3}
  - m_RefCount: 1
    m_Data: {fileID: 21300000, guid: b3f47dee04cb6dd42bb710dc84c31c0c, type: 3}
  - m_RefCount: 1
    m_Data: {fileID: 21300000, guid: 6f3bb02f4ebe04e4c97c9bf90ee4786c, type: 3}
  - m_RefCount: 1
    m_Data: {fileID: 21300000, guid: b4158abb4b15ed04eab40bd38888d4e9, type: 3}
  - m_RefCount: 1
    m_Data: {fileID: 21300000, guid: d24933fd97db728438f010f0a3f3d79f, type: 3}
  - m_RefCount: 1
    m_Data: {fileID: 21300000, guid: 53c5526069de88f47bdfb41ad931d19c, type: 3}
  - m_RefCount: 1
    m_Data: {fileID: 21300000, guid: a4e4de3e85d1566458be3977c6269a41, type: 3}
  - m_RefCount: 1
    m_Data: {fileID: 21300000, guid: b35a39bf7ba127547b369efee418315f, type: 3}
  - m_RefCount: 1
    m_Data: {fileID: 21300000, guid: a473339121f87614290e9ad874ebd693, type: 3}
  - m_RefCount: 1
    m_Data: {fileID: 21300000, guid: 9b45e8e69db74e0499409bae16f46e5e, type: 3}
  - m_RefCount: 1
    m_Data: {fileID: 21300000, guid: d9d35d2f51d01934ea7ee59308964f62, type: 3}
  - m_RefCount: 1
    m_Data: {fileID: 21300000, guid: 0abe9e29045552440b8a6126bf80fed3, type: 3}
  - m_RefCount: 1
    m_Data: {fileID: 21300000, guid: aa25d929136f552438a928a77ef859ec, type: 3}
  - m_RefCount: 1
    m_Data: {fileID: 21300000, guid: 353cb3f7cbfb12240a8489dc6205dde6, type: 3}
  - m_RefCount: 1
    m_Data: {fileID: 21300000, guid: 807b0e1d566be4147bf8e5e4b075779a, type: 3}
  - m_RefCount: 1
    m_Data: {fileID: 21300000, guid: 6ec425414702e5f489e7c70b767ff35a, type: 3}
  - m_RefCount: 1
    m_Data: {fileID: 21300000, guid: 0c61c3340211eb64ebbb3c3692226179, type: 3}
  m_TileMatrixArray:
  - m_RefCount: 20
    m_Data:
      e00: 1
      e01: 0
      e02: 0
      e03: 0
      e10: 0
      e11: 1
      e12: 0
      e13: 0
      e20: 0
      e21: 0
      e22: 1
      e23: 0
      e30: 0
      e31: 0
      e32: 0
      e33: 1
  m_TileColorArray:
  - m_RefCount: 20
    m_Data: {r: 1, g: 1, b: 1, a: 1}
  m_AnimationFrameRate: 1
  m_Color: {r: 1, g: 1, b: 1, a: 1}
  m_Origin: {x: -1, y: -3, z: 0}
  m_Size: {x: 5, y: 4, z: 1}
  m_TileAnchor: {x: 0.5, y: 0.5, z: 0}
  m_TileOrientation: 0
  m_TileOrientationMatrix:
    e00: 1
    e01: 0
    e02: 0
    e03: 0
    e10: 0
    e11: 1
    e12: 0
    e13: 0
    e20: 0
    e21: 0
    e22: 1
    e23: 0
    e30: 0
    e31: 0
    e32: 0
    e33: 1
--- !u!483693784 &2930706341095055853
TilemapRenderer:
  m_ObjectHideFlags: 0
  m_CorrespondingSourceObject: {fileID: 0}
  m_PrefabInstance: {fileID: 0}
  m_PrefabAsset: {fileID: 0}
  m_GameObject: {fileID: 4096334426330735728}
  m_Enabled: 0
  m_CastShadows: 0
  m_ReceiveShadows: 0
  m_DynamicOccludee: 0
  m_MotionVectors: 1
  m_LightProbeUsage: 0
  m_ReflectionProbeUsage: 0
  m_RenderingLayerMask: 1
  m_RendererPriority: 0
  m_Materials:
  - {fileID: 10754, guid: 0000000000000000f000000000000000, type: 0}
  m_StaticBatchInfo:
    firstSubMesh: 0
    subMeshCount: 0
  m_StaticBatchRoot: {fileID: 0}
  m_ProbeAnchor: {fileID: 0}
  m_LightProbeVolumeOverride: {fileID: 0}
  m_ScaleInLightmap: 1
  m_ReceiveGI: 1
  m_PreserveUVs: 0
  m_IgnoreNormalsForChartDetection: 0
  m_ImportantGI: 0
  m_StitchLightmapSeams: 1
  m_SelectedEditorRenderState: 0
  m_MinimumChartSize: 4
  m_AutoUVMaxDistance: 0.5
  m_AutoUVMaxAngle: 89
  m_LightmapParameters: {fileID: 0}
  m_SortingLayerID: 0
  m_SortingLayer: 0
  m_SortingOrder: 0
  m_ChunkSize: {x: 32, y: 32, z: 32}
  m_ChunkCullingBounds: {x: 0, y: 0, z: 0}
  m_MaxChunkCount: 16
  m_MaxFrameAge: 16
  m_SortOrder: 0
  m_Mode: 0
  m_DetectChunkCullingBounds: 0
  m_MaskInteraction: 0
--- !u!1 &7745480771547708360
GameObject:
  m_ObjectHideFlags: 0
  m_CorrespondingSourceObject: {fileID: 0}
  m_PrefabInstance: {fileID: 0}
  m_PrefabAsset: {fileID: 0}
  serializedVersion: 6
  m_Component:
  - component: {fileID: 3361329772841221993}
  - component: {fileID: 798596210549076948}
  m_Layer: 31
  m_Name: Grass Platform Palete
  m_TagString: Untagged
  m_Icon: {fileID: 0}
  m_NavMeshLayer: 0
  m_StaticEditorFlags: 0
  m_IsActive: 1
--- !u!4 &3361329772841221993
Transform:
  m_ObjectHideFlags: 0
  m_CorrespondingSourceObject: {fileID: 0}
  m_PrefabInstance: {fileID: 0}
  m_PrefabAsset: {fileID: 0}
  m_GameObject: {fileID: 7745480771547708360}
  m_LocalRotation: {x: 0, y: 0, z: 0, w: 1}
  m_LocalPosition: {x: 0, y: 0, z: 0}
  m_LocalScale: {x: 1, y: 1, z: 1}
  m_Children:
  - {fileID: 4065287176773769068}
  m_Father: {fileID: 0}
  m_RootOrder: 0
  m_LocalEulerAnglesHint: {x: 0, y: 0, z: 0}
--- !u!156049354 &798596210549076948
Grid:
  m_ObjectHideFlags: 0
  m_CorrespondingSourceObject: {fileID: 0}
  m_PrefabInstance: {fileID: 0}
  m_PrefabAsset: {fileID: 0}
  m_GameObject: {fileID: 7745480771547708360}
  m_Enabled: 1
  m_CellSize: {x: 1, y: 1, z: 0}
  m_CellGap: {x: 0, y: 0, z: 0}
  m_CellLayout: 0
  m_CellSwizzle: 0
--- !u!114 &4272935195647371981
MonoBehaviour:
  m_ObjectHideFlags: 0
  m_CorrespondingSourceObject: {fileID: 0}
  m_PrefabInstance: {fileID: 0}
  m_PrefabAsset: {fileID: 0}
  m_GameObject: {fileID: 0}
  m_Enabled: 1
  m_EditorHideFlags: 0
  m_Script: {fileID: 12395, guid: 0000000000000000e000000000000000, type: 0}
  m_Name: Palette Settings
  m_EditorClassIdentifier: 
  cellSizing: 0
