%YAML 1.1
%TAG !u! tag:unity3d.com,2011:
--- !u!74 &7400000
AnimationClip:
  m_ObjectHideFlags: 0
  m_CorrespondingSourceObject: {fileID: 0}
  m_PrefabInstance: {fileID: 0}
  m_PrefabAsset: {fileID: 0}
  m_Name: siti_walk
  serializedVersion: 6
  m_Legacy: 0
  m_Compressed: 0
  m_UseHighQualityCurve: 1
  m_RotationCurves: []
  m_CompressedRotationCurves: []
  m_EulerCurves: []
  m_PositionCurves: []
  m_ScaleCurves: []
  m_FloatCurves: []
  m_PPtrCurves:
  - curve:
    - time: 0
      value: {fileID: 21300000, guid: 2527e3814b29e124ba3dba44f0531f9f, type: 3}
    - time: 0.016666668
      value: {fileID: 21300000, guid: 35dc3bd630120e44ba1ab48f1a95fd80, type: 3}
    - time: 0.033333335
      value: {fileID: 21300000, guid: 3c903b3be5d7cbf469e9ba3089c9850d, type: 3}
    - time: 0.05
      value: {fileID: 21300000, guid: cff78231d36753f4fb1ef3ec146bc020, type: 3}
    - time: 0.06666667
      value: {fileID: 21300000, guid: ab05a102163c9b64eaab0f71bad97dca, type: 3}
    - time: 0.1
      value: {fileID: 21300000, guid: 15e5f9e38ccf00840ad0f0947d6befab, type: 3}
    - time: 0.11666667
      value: {fileID: 21300000, guid: b2a023fa1188f53478b3ce17a9548720, type: 3}
    - time: 0.13333334
      value: {fileID: 21300000, guid: 4d822d26fe9c41643bd20b816a468ac5, type: 3}
    - time: 0.15
      value: {fileID: 21300000, guid: 7999a08c97f1a8e48a464d1569184f05, type: 3}
    - time: 0.16666667
      value: {fileID: 21300000, guid: 48e8d7cadf5aa9541b62cae849d431bb, type: 3}
    - time: 0.18333334
      value: {fileID: 21300000, guid: fed233761e36fc44b9abffb0e778d095, type: 3}
    - time: 0.2
      value: {fileID: 21300000, guid: 53b6b318264cb5b42907b1f97c5cb2fe, type: 3}
    - time: 0.21666667
      value: {fileID: 21300000, guid: e1118e839ed60e442bf62f558abaa8fc, type: 3}
    - time: 0.23333333
      value: {fileID: 21300000, guid: 4e97f3082df2a7c4997580e6a4b5d474, type: 3}
    - time: 0.25
      value: {fileID: 21300000, guid: 33a669a82dab62943925e96d6548a8ad, type: 3}
    - time: 0.28333333
      value: {fileID: 21300000, guid: 79745b6b378752b4ea484d165e92ef01, type: 3}
    - time: 0.3
      value: {fileID: 21300000, guid: 11931df95714ae34ca84a17afac03cee, type: 3}
    - time: 0.31666666
      value: {fileID: 21300000, guid: 59e537ab61fd1f74489c59c34d6d9ff8, type: 3}
    - time: 0.33333334
      value: {fileID: 21300000, guid: 44611712cefeab64c85152d94e7bff6e, type: 3}
    - time: 0.35
      value: {fileID: 21300000, guid: 88f148c29394f26468c40486bc9d07ea, type: 3}
    attribute: m_Sprite
    path: 
    classID: 212
    script: {fileID: 0}
  m_SampleRate: 60
  m_WrapMode: 0
  m_Bounds:
    m_Center: {x: 0, y: 0, z: 0}
    m_Extent: {x: 0, y: 0, z: 0}
  m_ClipBindingConstant:
    genericBindings:
    - serializedVersion: 2
      path: 0
      attribute: 0
      script: {fileID: 0}
      typeID: 212
      customType: 23
      isPPtrCurve: 1
    pptrCurveMapping:
    - {fileID: 21300000, guid: 2527e3814b29e124ba3dba44f0531f9f, type: 3}
    - {fileID: 21300000, guid: 35dc3bd630120e44ba1ab48f1a95fd80, type: 3}
    - {fileID: 21300000, guid: 3c903b3be5d7cbf469e9ba3089c9850d, type: 3}
    - {fileID: 21300000, guid: cff78231d36753f4fb1ef3ec146bc020, type: 3}
    - {fileID: 21300000, guid: ab05a102163c9b64eaab0f71bad97dca, type: 3}
    - {fileID: 21300000, guid: 15e5f9e38ccf00840ad0f0947d6befab, type: 3}
    - {fileID: 21300000, guid: b2a023fa1188f53478b3ce17a9548720, type: 3}
    - {fileID: 21300000, guid: 4d822d26fe9c41643bd20b816a468ac5, type: 3}
    - {fileID: 21300000, guid: 7999a08c97f1a8e48a464d1569184f05, type: 3}
    - {fileID: 21300000, guid: 48e8d7cadf5aa9541b62cae849d431bb, type: 3}
    - {fileID: 21300000, guid: fed233761e36fc44b9abffb0e778d095, type: 3}
    - {fileID: 21300000, guid: 53b6b318264cb5b42907b1f97c5cb2fe, type: 3}
    - {fileID: 21300000, guid: e1118e839ed60e442bf62f558abaa8fc, type: 3}
    - {fileID: 21300000, guid: 4e97f3082df2a7c4997580e6a4b5d474, type: 3}
    - {fileID: 21300000, guid: 33a669a82dab62943925e96d6548a8ad, type: 3}
    - {fileID: 21300000, guid: 79745b6b378752b4ea484d165e92ef01, type: 3}
    - {fileID: 21300000, guid: 11931df95714ae34ca84a17afac03cee, type: 3}
    - {fileID: 21300000, guid: 59e537ab61fd1f74489c59c34d6d9ff8, type: 3}
    - {fileID: 21300000, guid: 44611712cefeab64c85152d94e7bff6e, type: 3}
    - {fileID: 21300000, guid: 88f148c29394f26468c40486bc9d07ea, type: 3}
  m_AnimationClipSettings:
    serializedVersion: 2
    m_AdditiveReferencePoseClip: {fileID: 0}
    m_AdditiveReferencePoseTime: 0
    m_StartTime: 0
    m_StopTime: 0.36666667
    m_OrientationOffsetY: 0
    m_Level: 0
    m_CycleOffset: 0
    m_HasAdditiveReferencePose: 0
    m_LoopTime: 1
    m_LoopBlend: 0
    m_LoopBlendOrientation: 0
    m_LoopBlendPositionY: 0
    m_LoopBlendPositionXZ: 0
    m_KeepOriginalOrientation: 0
    m_KeepOriginalPositionY: 1
    m_KeepOriginalPositionXZ: 0
    m_HeightFromFeet: 0
    m_Mirror: 0
  m_EditorCurves: []
  m_EulerEditorCurves: []
  m_HasGenericRootTransform: 0
  m_HasMotionFloatCurves: 0
  m_Events: []
